^C:\USERS\ROKO\DOCUMENTS\OBJEKTNO_VJEZBE\ZADATAK2\ZADATAK2\PCH.CPP
C:\USERS\ROKO\DOCUMENTS\OBJEKTNO_VJEZBE\ZADATAK2\ZADATAK2\DEBUG\ZADATAK2.PCH
C:\USERS\ROKO\DOCUMENTS\OBJEKTNO_VJEZBE\ZADATAK2\ZADATAK2\DEBUG\VC141.PDB
C:\USERS\ROKO\DOCUMENTS\OBJEKTNO_VJEZBE\ZADATAK2\ZADATAK2\DEBUG\VC141.IDB
C:\USERS\ROKO\DOCUMENTS\OBJEKTNO_VJEZBE\ZADATAK2\ZADATAK2\DEBUG\PCH.OBJ
^C:\USERS\ROKO\DOCUMENTS\OBJEKTNO_VJEZBE\ZADATAK2\ZADATAK2\ZADATAK2.CPP
C:\USERS\ROKO\DOCUMENTS\OBJEKTNO_VJEZBE\ZADATAK2\ZADATAK2\DEBUG\VC141.PDB
C:\USERS\ROKO\DOCUMENTS\OBJEKTNO_VJEZBE\ZADATAK2\ZADATAK2\DEBUG\VC141.IDB
C:\USERS\ROKO\DOCUMENTS\OBJEKTNO_VJEZBE\ZADATAK2\ZADATAK2\DEBUG\ZADATAK2.OBJ
^D:\DOCUMENTS\RDURAN_OOP\VJEZBA 2\ZADATAK2\ZADATAK2\PCH.CPP
D:\DOCUMENTS\RDURAN_OOP\VJEZBA 2\ZADATAK2\ZADATAK2\DEBUG\ZADATAK2.PCH
D:\DOCUMENTS\RDURAN_OOP\VJEZBA 2\ZADATAK2\ZADATAK2\DEBUG\VC141.PDB
D:\DOCUMENTS\RDURAN_OOP\VJEZBA 2\ZADATAK2\ZADATAK2\DEBUG\VC141.IDB
D:\DOCUMENTS\RDURAN_OOP\VJEZBA 2\ZADATAK2\ZADATAK2\DEBUG\PCH.OBJ
^D:\DOCUMENTS\RDURAN_OOP\VJEZBA 2\ZADATAK2\ZADATAK2\ZADATAK2.CPP
D:\DOCUMENTS\RDURAN_OOP\VJEZBA 2\ZADATAK2\ZADATAK2\DEBUG\VC141.PDB
D:\DOCUMENTS\RDURAN_OOP\VJEZBA 2\ZADATAK2\ZADATAK2\DEBUG\VC141.IDB
D:\DOCUMENTS\RDURAN_OOP\VJEZBA 2\ZADATAK2\ZADATAK2\DEBUG\ZADATAK2.OBJ
