^D:\DOCUMENTS\RDURAN_OOP\VJEZBA 3\ZADATAK1\ZADATAK1\PCH.CPP
D:\DOCUMENTS\RDURAN_OOP\VJEZBA 3\ZADATAK1\ZADATAK1\DEBUG\ZADATAK1.PCH
D:\DOCUMENTS\RDURAN_OOP\VJEZBA 3\ZADATAK1\ZADATAK1\DEBUG\VC141.PDB
D:\DOCUMENTS\RDURAN_OOP\VJEZBA 3\ZADATAK1\ZADATAK1\DEBUG\VC141.IDB
D:\DOCUMENTS\RDURAN_OOP\VJEZBA 3\ZADATAK1\ZADATAK1\DEBUG\PCH.OBJ
^D:\DOCUMENTS\RDURAN_OOP\VJEZBA 3\ZADATAK1\ZADATAK1\ZADATAK1.CPP
D:\DOCUMENTS\RDURAN_OOP\VJEZBA 3\ZADATAK1\ZADATAK1\DEBUG\VC141.PDB
D:\DOCUMENTS\RDURAN_OOP\VJEZBA 3\ZADATAK1\ZADATAK1\DEBUG\VC141.IDB
D:\DOCUMENTS\RDURAN_OOP\VJEZBA 3\ZADATAK1\ZADATAK1\DEBUG\ZADATAK1.OBJ
